{
  "project_info": {
    "project_number": "306952387275",
    "project_id": "test-task-67bb2",
    "storage_bucket": "test-task-67bb2.appspot.com"
  },
  "client": [
    {
      "client_info": {
        "mobilesdk_app_id": "1:306952387275:android:5d71a6ea9ecd22e338794e",
        "android_client_info": {
          "package_name": "com.example.test_task"
        }
      },
      "oauth_client": [
        {
          "client_id": "306952387275-odgjm83jq7cruelhkbco6q94bs88il7h.apps.googleusercontent.com",
          "client_type": 3
        }
      ],
      "api_key": [
        {
          "current_key": "AIzaSyBmy_Q_vH6XgIq6i2YUgp96vmeMg2qMLjQ"
        }
      ],
      "services": {
        "appinvite_service": {
          "other_platform_oauth_client": [
            {
              "client_id": "306952387275-odgjm83jq7cruelhkbco6q94bs88il7h.apps.googleusercontent.com",
              "client_type": 3
            }
          ]
        }
      }
    }
  ],
  "configuration_version": "1"
}